{   "start": [
        { "entity": 1, "type": 1, "state": [ { "id": 2, "type": 3, "data": { "x": -1.73205080756888, "y": 2.0 }} ]},
        { "entity": 2, "type": 1, "state": [ { "id": 2, "type": 3, "data": { "x": -0.866025403784439, "y": 2.5 }} ]},
        { "entity": 3, "type": 1, "state": [ { "id": 2, "type": 3, "data": { "x": 0.0, "y": 2.0 }} ]},
        { "entity": 4, "type": 1, "state": [ { "id": 2, "type": 3, "data": { "x": 0.866025403784439, "y": 2.5 }} ]},
        { "entity": 5, "type": 1, "state": [ { "id": 2, "type": 3, "data": { "x": 1.73205080756888, "y": 2.0 }} ]}
    ],
    "goal": [
        { "entity": 5, "type": 1, "state": [ { "id": 2, "type": 3, "data": { "x": -1.73205080756888, "y": -2.0 }} ]},
        { "entity": 4, "type": 1, "state": [ { "id": 2, "type": 3, "data": { "x": -0.866025403784439, "y": -2.5 }} ]},
        { "entity": 3, "type": 1, "state": [ { "id": 2, "type": 3, "data": { "x": 0.0, "y": -2.0 }} ]},
        { "entity": 2, "type": 1, "state": [ { "id": 2, "type": 3, "data": { "x": 0.866025403784439, "y": -2.5 }} ]},
        { "entity": 1, "type": 1, "state": [ { "id": 2, "type": 3, "data": { "x": 1.73205080756888, "y": -2.0 }} ]}
    ]
}
